0,47.83
1,47.83
2,47.83
3,47.83
4,30.13
5,30.13
6,30.13
7,30.13
8,30.13
9,30.13
10,30.13
11,30.13
12,30.13
13,30.13
14,30.13
15,30.13
16,30.13
17,30.13
18,30.13
19,30.13
20,30.13
21,30.13
22,30.13
23,30.13
24,30.13
25,57.78
26,57.78
27,57.78
28,57.78
29,57.78
30,57.78
31,57.78
32,57.78
33,57.78
34,57.78
35,48.92
36,48.92
37,48.92
38,48.92
39,48.92
40,48.92
41,48.92
42,48.92
43,48.92
44,48.92
45,51.7
46,51.7
47,51.7
48,51.7
49,51.7
50,51.7
51,51.7
52,51.7
53,51.7
54,51.7
55,71.29
56,71.29
57,71.29
58,71.29
59,71.29
60,71.29
61,71.29
62,71.29
63,71.29
64,71.29
65,71.29
